…
2. Notice that we have some neutral superheros! Who are they?

```r
filter(superhero_info, alignment== "neutral")
```

```
## # A tibble: 24 x 10
##    name  gender eye_color race  hair_color height publisher skin_color alignment
##    <chr> <chr>  <chr>     <chr> <chr>       <dbl> <chr>     <chr>      <chr>    
##  1 Biza~ Male   black     Biza~ Black         191 DC Comics white      neutral  
##  2 Blac~ Male   <NA>      God ~ <NA>           NA DC Comics <NA>       neutral  
##  3 Capt~ Male   brown     Human Brown          NA DC Comics <NA>       neutral  
##  4 Copy~ Female red       Muta~ White         183 Marvel C~ blue       neutral  
##  5 Dead~ Male   brown     Muta~ No Hair       188 Marvel C~ <NA>       neutral  
##  6 Deat~ Male   blue      Human White         193 DC Comics <NA>       neutral  
##  7 Etri~ Male   red       Demon No Hair       193 DC Comics yellow     neutral  
##  8 Gala~ Male   black     Cosm~ Black         876 Marvel C~ <NA>       neutral  
##  9 Glad~ Male   blue      Stro~ Blue          198 Marvel C~ purple     neutral  
## 10 Indi~ Female <NA>      Alien Purple         NA DC Comics <NA>       neutral  
## # ... with 14 more rows, and 1 more variable: weight <dbl>
```
…
```r
new_superinfo <- select(superhero_info, "name", "alignment", "race")
```

## Not Human
4. List all of the superheros that are not human.

```r
superhero_info %>% 
  select("name", "alignment", "race") %>% 
  filter(race != "Human")
```

```
## # A tibble: 222 x 3
##    name         alignment race             
##    <chr>        <chr>     <chr>            
##  1 Abe Sapien   good      Icthyo Sapien    
##  2 Abin Sur     good      Ungaran          
##  3 Abomination  bad       Human / Radiation
##  4 Abraxas      bad       Cosmic Entity    
##  5 Ajax         bad       Cyborg           
##  6 Alien        bad       Xenomorph XX121  
##  7 Amazo        bad       Android          
##  8 Angel        good      Vampire          
##  9 Angel Dust   good      Mutant           
## 10 Anti-Monitor bad       God / Eternal    
## # ... with 212 more rows
```

## Good and Evil
5. Let's make two different data frames, one focused on the "good guys" and another focused on the "bad guys".

```r
bad_guys<- superhero_info %>% 
  select(name,alignment, race) %>% 
  filter(alignment =="bad")
bad_guys
```

```
## # A tibble: 207 x 3
##    name          alignment race             
##    <chr>         <chr>     <chr>            
##  1 Abomination   bad       Human / Radiation
##  2 Abraxas       bad       Cosmic Entity    
##  3 Absorbing Man bad       Human            
##  4 Air-Walker    bad       <NA>             
##  5 Ajax          bad       Cyborg           
##  6 Alex Mercer   bad       Human            
##  7 Alien         bad       Xenomorph XX121  
##  8 Amazo         bad       Android          
##  9 Ammo          bad       Human            
## 10 Angela        bad       <NA>             
## # ... with 197 more rows
```

```r
good_guys<- superhero_info %>% 
  select(name,alignment, race) %>% 
  filter(alignment =="good")
good_guys
```

```
## # A tibble: 496 x 3
##    name         alignment race         
##    <chr>        <chr>     <chr>        
##  1 A-Bomb       good      Human        
##  2 Abe Sapien   good      Icthyo Sapien
##  3 Abin Sur     good      Ungaran      
##  4 Adam Monroe  good      <NA>         
##  5 Adam Strange good      Human        
##  6 Agent 13     good      <NA>         
##  7 Agent Bob    good      Human        
##  8 Agent Zero   good      <NA>         
##  9 Alan Scott   good      <NA>         
## 10 Alex Woolsly good      <NA>         
## # ... with 486 more rows
```
…
```r
bald_dudes<- superhero_info %>% 
  select(name,hair_color,alignment) %>% 
  filter(hair_color=="No Hair")
```

```r
bad_baldies<-bald_dudes %>% 
  filter(alignment=="bad") 
  bad_baldies
```

```
## # A tibble: 35 x 3
##    name          hair_color alignment
##    <chr>         <chr>      <chr>    
##  1 Abomination   No Hair    bad      
##  2 Absorbing Man No Hair    bad      
##  3 Alien         No Hair    bad      
##  4 Annihilus     No Hair    bad      
##  5 Anti-Monitor  No Hair    bad      
##  6 Black Manta   No Hair    bad      
##  7 Bloodwraith   No Hair    bad      
##  8 Brainiac      No Hair    bad      
##  9 Darkseid      No Hair    bad      
## 10 Darth Vader   No Hair    bad      
## # ... with 25 more rows
```
…
```
## # A tibble: 1 x 1
##       n
##   <int>
## 1    35
```

```r
good_baldies<- bald_dudes %>% 
  filter(alignment=="good")
good_baldies 
```

```
## # A tibble: 37 x 3
##    name            hair_color alignment
##    <chr>           <chr>      <chr>    
##  1 A-Bomb          No Hair    good     
##  2 Abe Sapien      No Hair    good     
##  3 Abin Sur        No Hair    good     
##  4 Beta Ray Bill   No Hair    good     
##  5 Bishop          No Hair    good     
##  6 Black Lightning No Hair    good     
##  7 Blaquesmith     No Hair    good     
##  8 Bloodhawk       No Hair    good     
##  9 Crimson Dynamo  No Hair    good     
## 10 Donatello       No Hair    good     
## # ... with 27 more rows
```
…
## Height to Weight Ratio
13. It's easy to be strong when you are heavy and tall, but who is heavy and short? Which superheros have the highest height to weight ratio?

```r
superhero_info %>% 
  mutate(height_weight_ratio=height/weight) %>% 
  select(name,height_weight_ratio) %>% 
  arrange(desc(height_weight_ratio))
```

```
## # A tibble: 734 x 2
##    name            height_weight_ratio
##    <chr>                         <dbl>
##  1 Groot                        175.  
##  2 Galactus                      54.8 
##  3 Fin Fang Foom                 54.2 
##  4 Longshot                       5.22
##  5 Jack-Jack                      5.07
##  6 Rocket Raccoon                 4.88
##  7 Dash                           4.52
##  8 Howard the Duck                4.39
##  9 Swarm                          4.17
## 10 Yoda                           3.88
## # ... with 724 more rows
```

## `superhero_powers`
Have a quick look at the `superhero_powers` data frame.  

```r
superhero_powers
```

```
## # A tibble: 667 x 168
##    hero_names agility accelerated_hea~ lantern_power_r~ dimensional_awa~
##    <chr>      <lgl>   <lgl>            <lgl>            <lgl>           
##  1 3-D Man    TRUE    FALSE            FALSE            FALSE           
##  2 A-Bomb     FALSE   TRUE             FALSE            FALSE           
##  3 Abe Sapien TRUE    TRUE             FALSE            FALSE           
##  4 Abin Sur   FALSE   FALSE            TRUE             FALSE           
##  5 Abominati~ FALSE   TRUE             FALSE            FALSE           
##  6 Abraxas    FALSE   FALSE            FALSE            TRUE            
##  7 Absorbing~ FALSE   FALSE            FALSE            FALSE           
##  8 Adam Monr~ FALSE   TRUE             FALSE            FALSE           
##  9 Adam Stra~ FALSE   FALSE            FALSE            FALSE           
## 10 Agent Bob  FALSE   FALSE            FALSE            FALSE           
## # ... with 657 more rows, and 163 more variables: cold_resistance <lgl>,
## #   durability <lgl>, stealth <lgl>, energy_absorption <lgl>, flight <lgl>,
## #   danger_sense <lgl>, underwater_breathing <lgl>, marksmanship <lgl>,
## #   weapons_master <lgl>, power_augmentation <lgl>, animal_attributes <lgl>,
## #   longevity <lgl>, intelligence <lgl>, super_strength <lgl>,
## #   cryokinesis <lgl>, telepathy <lgl>, energy_armor <lgl>,
## #   energy_blasts <lgl>, duplication <lgl>, size_changing <lgl>,
## #   density_control <lgl>, stamina <lgl>, astral_travel <lgl>,
## #   audio_control <lgl>, dexterity <lgl>, omnitrix <lgl>, super_speed <lgl>,
…
14. How many superheros have a combination of accelerated healing, durability, and super strength?

```r
superhero_powers %>% 
  select(hero_names,accelerated_healing,durability,super_strength) %>% 
  filter(accelerated_healing==TRUE,durability==TRUE,super_strength==TRUE )
```

```
## # A tibble: 97 x 4
##    hero_names   accelerated_healing durability super_strength
##    <chr>        <lgl>               <lgl>      <lgl>         
##  1 A-Bomb       TRUE                TRUE       TRUE          
##  2 Abe Sapien   TRUE                TRUE       TRUE          
##  3 Angel        TRUE                TRUE       TRUE          
##  4 Anti-Monitor TRUE                TRUE       TRUE          
##  5 Anti-Venom   TRUE                TRUE       TRUE          
##  6 Aquaman      TRUE                TRUE       TRUE          
##  7 Arachne      TRUE                TRUE       TRUE          
##  8 Archangel    TRUE                TRUE       TRUE          
##  9 Ardina       TRUE                TRUE       TRUE          
## 10 Ares         TRUE                TRUE       TRUE          
## # ... with 87 more rows
```

## `kinesis`
15. We are only interested in the superheros that do some kind of "kinesis". How would we isolate them from the `superhero_powers` data?

```r
superhero_powers %>% 
  select(hero_names,ends_with("kinesis")) %>% 
  filter_all(any_vars(.==TRUE))
```

```
## # A tibble: 112 x 10
##    hero_names cryokinesis electrokinesis telekinesis hyperkinesis hypnokinesis
##    <chr>      <lgl>       <lgl>          <lgl>       <lgl>        <lgl>       
##  1 Alan Scott FALSE       FALSE          FALSE       FALSE        TRUE        
##  2 Amazo      TRUE        FALSE          FALSE       FALSE        FALSE       
##  3 Apocalypse FALSE       FALSE          TRUE        FALSE        FALSE       
##  4 Aqualad    TRUE        FALSE          FALSE       FALSE        FALSE       
##  5 Beyonder   FALSE       FALSE          TRUE        FALSE        FALSE       
##  6 Bizarro    TRUE        FALSE          FALSE       FALSE        TRUE        
##  7 Black Abb~ FALSE       FALSE          TRUE        FALSE        FALSE       
##  8 Black Adam FALSE       FALSE          TRUE        FALSE        FALSE       
##  9 Black Lig~ FALSE       TRUE           FALSE       FALSE        FALSE       
## 10 Black Mam~ FALSE       FALSE          FALSE       FALSE        TRUE        
## # ... with 102 more rows, and 4 more variables: thirstokinesis <lgl>,
## #   biokinesis <lgl>, terrakinesis <lgl>, vitakinesis <lgl>
```
…
